Twitter Analysis - Mohin Banker
…
free
sounds

season
awesome

Topic Modeling

Word Ratios

If we’re creating topic models, we would expect natural topics to arise between replies and non-replies. We can first look at log ratios of word frequencies between replies and non-replies to identify words that are distinctive of replies and non-replies.

## # A tibble: 6,825 x 4
##         word     no_reply        reply      logratio
##        <chr>        <dbl>        <dbl>         <dbl>
##  1      bear 8.929964e-05 8.930517e-05  6.199909e-05
##  2  addition 9.196530e-05 9.205908e-05  1.019212e-03
##  3     apple 1.999246e-04 2.006416e-04  3.580033e-03
##  4      mark 4.278386e-04 4.296090e-04  4.129634e-03
##  5     price 2.785616e-04 2.773575e-04 -4.331848e-03
##  6   appears 7.597133e-05 7.632248e-05  4.611492e-03
##  7      guys 2.772287e-04 2.785377e-04  4.710615e-03
##  8 standards 6.930718e-05 6.963443e-05  4.710615e-03
##  9    choose 2.985540e-04 3.005690e-04  6.726338e-03
## 10    figure 7.064001e-05 7.002785e-05 -8.703762e-03
## # ... with 6,815 more rows
…
